…
There are a total of 15 variables. There are 1384617 rows and 15
columns. Examples of key variables include order ID, product ID, user
ID, product name, aisle ID, aisle number, etc.

``` r
instacart_df = 
  instacart
  
instacart_df |>
  group_by(aisle) |>
  summarize(n_obs = n())
```

    ## # A tibble: 134 × 2
    ##    aisle                  n_obs
    ##    <chr>                  <int>
    ##  1 air fresheners candles  1067
    ##  2 asian foods             7007
    ##  3 baby accessories         306
    ##  4 baby bath body care      328
    ##  5 baby food formula      13198
    ##  6 bakery desserts         1501
    ##  7 baking ingredients     13088
    ##  8 baking supplies decor   1094
    ##  9 beauty                   287
    ## 10 beers coolers           1839
    ## # ℹ 124 more rows

There are 134 aisles. The aisles that the most items are ordered from
are: fresh vegetables, fresh fruits, and packaged vegetable fruits.

``` r
instacart_df |>
  filter(n() >= 10000)
```

    ## # A tibble: 1,384,617 × 15
    ##    order_id product_id add_to_cart_order reordered user_id eval_set order_number
    ##       <int>      <int>             <int>     <int>   <int> <chr>           <int>
    ##  1        1      49302                 1         1  112108 train               4
    ##  2        1      11109                 2         1  112108 train               4
    ##  3        1      10246                 3         0  112108 train               4
    ##  4        1      49683                 4         0  112108 train               4
    ##  5        1      43633                 5         1  112108 train               4
    ##  6        1      13176                 6         0  112108 train               4
    ##  7        1      47209                 7         0  112108 train               4
    ##  8        1      22035                 8         1  112108 train               4
    ##  9       36      39612                 1         0   79431 train              23
    ## 10       36      19660                 2         1   79431 train              23
    ## # ℹ 1,384,607 more rows
    ## # ℹ 8 more variables: order_dow <int>, order_hour_of_day <int>,
    ## #   days_since_prior_order <int>, product_name <chr>, aisle_id <int>,
    ## #   department_id <int>, aisle <chr>, department <chr>
…
